{
	"count": 13,
	"next": "https://swapi.co/api/vehicles/?search=de&page=2",
	"previous": null,
	"results": [
		{
			"name": "X-34 landspeeder",
			"model": "X-34 landspeeder",
			"manufacturer": "SoroSuub Corporation",
			"cost_in_credits": "10550",
			"length": "3.4",
			"max_atmosphering_speed": "250",
			"crew": "1",
			"passengers": "1",
			"cargo_capacity": "5",
			"consumables": "unknown",
			"vehicle_class": "repulsorcraft",
			"pilots": [],
			"films": [
				"https://swapi.co/api/films/1/"
			],
			"created": "2014-12-10T16:13:52.586000Z",
			"edited": "2014-12-22T18:21:15.583700Z",
			"url": "https://swapi.co/api/vehicles/7/"
		},
		{
			"name": "Snowspeeder",
			"model": "t-47 airspeeder",
			"manufacturer": "Incom corporation",
			"cost_in_credits": "unknown",
			"length": "4.5",
			"max_atmosphering_speed": "650",
			"crew": "2",
			"passengers": "0",
			"cargo_capacity": "10",
			"consumables": "none",
			"vehicle_class": "airspeeder",
			"pilots": [
				"https://swapi.co/api/people/1/",
				"https://swapi.co/api/people/18/"
			],
			"films": [
				"https://swapi.co/api/films/2/"
			],
			"created": "2014-12-15T12:22:12Z",
			"edited": "2014-12-22T18:21:15.623033Z",
			"url": "https://swapi.co/api/vehicles/14/"
		},
		{
			"name": "Imperial Speeder Bike",
			"model": "74-Z speeder bike",
			"manufacturer": "Aratech Repulsor Company",
			"cost_in_credits": "8000",
			"length": "3",
			"max_atmosphering_speed": "360",
			"crew": "1",
			"passengers": "1",
			"cargo_capacity": "4",
			"consumables": "1 day",
			"vehicle_class": "speeder",
			"pilots": [
				"https://swapi.co/api/people/1/",
				"https://swapi.co/api/people/5/"
			],
			"films": [
				"https://swapi.co/api/films/3/"
			],
			"created": "2014-12-18T11:20:04.625000Z",
			"edited": "2014-12-22T18:21:15.920537Z",
			"url": "https://swapi.co/api/vehicles/30/"
		},
		{
			"name": "Sith speeder",
			"model": "FC-20 speeder bike",
			"manufacturer": "Razalon",
			"cost_in_credits": "4000",
			"length": "1.5",
			"max_atmosphering_speed": "180",
			"crew": "1",
			"passengers": "0",
			"cargo_capacity": "2",
			"consumables": "unknown",
			"vehicle_class": "speeder",
			"pilots": [
				"https://swapi.co/api/people/44/"
			],
			"films": [
				"https://swapi.co/api/films/4/"
			],
			"created": "2014-12-20T10:09:56.095000Z",
			"edited": "2014-12-22T18:21:16.095041Z",
			"url": "https://swapi.co/api/vehicles/42/"
		},
		{
			"name": "Koro-2 Exodrive airspeeder",
			"model": "Koro-2 Exodrive airspeeder",
			"manufacturer": "Desler Gizh Outworld Mobility Corporation",
			"cost_in_credits": "unknown",
			"length": "6.6",
			"max_atmosphering_speed": "800",
			"crew": "1",
			"passengers": "1",
			"cargo_capacity": "80",
			"consumables": "unknown",
			"vehicle_class": "airspeeder",
			"pilots": [
				"https://swapi.co/api/people/70/"
			],
			"films": [
				"https://swapi.co/api/films/5/"
			],
			"created": "2014-12-20T17:17:33.526000Z",
			"edited": "2014-12-22T18:21:16.140018Z",
			"url": "https://swapi.co/api/vehicles/45/"
		},
		{
			"name": "XJ-6 airspeeder",
			"model": "XJ-6 airspeeder",
			"manufacturer": "Narglatch AirTech prefabricated kit",
			"cost_in_credits": "unknown",
			"length": "6.23",
			"max_atmosphering_speed": "720",
			"crew": "1",
			"passengers": "1",
			"cargo_capacity": "unknown",
			"consumables": "unknown",
			"vehicle_class": "airspeeder",
			"pilots": [
				"https://swapi.co/api/people/11/"
			],
			"films": [
				"https://swapi.co/api/films/5/"
			],
			"created": "2014-12-20T17:19:19.991000Z",
			"edited": "2014-12-22T18:21:16.150194Z",
			"url": "https://swapi.co/api/vehicles/46/"
		},
		{
			"name": "LAAT/i",
			"model": "Low Altitude Assault Transport/infrantry",
			"manufacturer": "Rothana Heavy Engineering",
			"cost_in_credits": "unknown",
			"length": "17.4",
			"max_atmosphering_speed": "620",
			"crew": "6",
			"passengers": "30",
			"cargo_capacity": "170",
			"consumables": "unknown",
			"vehicle_class": "gunship",
			"pilots": [],
			"films": [
				"https://swapi.co/api/films/5/",
				"https://swapi.co/api/films/6/"
			],
			"created": "2014-12-20T18:01:21.014000Z",
			"edited": "2014-12-22T18:21:16.181363Z",
			"url": "https://swapi.co/api/vehicles/50/"
		},
		{
			"name": "LAAT/c",
			"model": "Low Altitude Assault Transport/carrier",
			"manufacturer": "Rothana Heavy Engineering",
			"cost_in_credits": "unknown",
			"length": "28.82",
			"max_atmosphering_speed": "620",
			"crew": "1",
			"passengers": "0",
			"cargo_capacity": "40000",
			"consumables": "unknown",
			"vehicle_class": "gunship",
			"pilots": [],
			"films": [
				"https://swapi.co/api/films/5/"
			],
			"created": "2014-12-20T18:02:46.802000Z",
			"edited": "2014-12-22T18:21:16.229733Z",
			"url": "https://swapi.co/api/vehicles/51/"
		},
		{
			"name": "Emergency Firespeeder",
			"model": "Fire suppression speeder",
			"manufacturer": "unknown",
			"cost_in_credits": "unknown",
			"length": "unknown",
			"max_atmosphering_speed": "unknown",
			"crew": "2",
			"passengers": "unknown",
			"cargo_capacity": "unknown",
			"consumables": "unknown",
			"vehicle_class": "fire suppression ship",
			"pilots": [],
			"films": [
				"https://swapi.co/api/films/6/"
			],
			"created": "2014-12-20T19:50:58.559000Z",
			"edited": "2014-12-22T18:21:16.450655Z",
			"url": "https://swapi.co/api/vehicles/62/"
		},
		{
			"name": "Corporate Alliance tank droid",
			"model": "NR-N99 Persuader-class droid enforcer",
			"manufacturer": "Techno Union",
			"cost_in_credits": "49000",
			"length": "10.96",
			"max_atmosphering_speed": "100",
			"crew": "0",
			"passengers": "4",
			"cargo_capacity": "none",
			"consumables": "none",
			"vehicle_class": "droid tank",
			"pilots": [],
			"films": [
				"https://swapi.co/api/films/6/"
			],
			"created": "2014-12-20T20:26:55.522000Z",
			"edited": "2014-12-22T18:21:16.612902Z",
			"url": "https://swapi.co/api/vehicles/72/"
		}
	]
}